[{
  "dateTime" : "05/26/18 00:00:00",
  "value" : {
    "valuesInZones" : {
      "IN_DEFAULT_ZONE_2" : 0.0,
      "IN_DEFAULT_ZONE_3" : 0.0,
      "IN_DEFAULT_ZONE_1" : 525.0,
      "BELOW_DEFAULT_ZONE_1" : 880.0
    }
  }
}]